%YAML 1.1
%TAG !u! tag:unity3d.com,2011:
--- !u!21 &2100000
Material:
  serializedVersion: 6
  m_ObjectHideFlags: 0
  m_PrefabParentObject: {fileID: 0}
  m_PrefabInternal: {fileID: 0}
  m_Name: CustomFill
  m_Shader: {fileID: 4800000, guid: 5f7f225cb0ea44c64bd0e0315d4fcdae, type: 3}
  m_ShaderKeywords: 
  m_LightmapFlags: 5
  m_CustomRenderQueue: -1
  stringTagMap: {}
  m_SavedProperties:
    serializedVersion: 2
    m_TexEnvs:
      data:
        first:
          name: _MainTex
        second:
          m_Texture: {fileID: 2800000, guid: e14f72d3f59e945ffa4cae320091136e, type: 3}
          m_Scale: {x: 1, y: 1}
          m_Offset: {x: 0, y: 0}
      data:
        first:
          name: _GradientTex
        second:
          m_Texture: {fileID: 2800000, guid: 30a58e8d956c3488aabaa2cd9216374f, type: 3}
          m_Scale: {x: 1, y: 1}
          m_Offset: {x: 0, y: 0}
      data:
        first:
          name: _DetailTex
        second:
          m_Texture: {fileID: 2800000, guid: 28c0b8c37697d41d59bed2148185223e, type: 3}
          m_Scale: {x: 0.05, y: 0.05}
          m_Offset: {x: 0, y: 0}
    m_Floats:
      data:
        first:
          name: _TextureScale
        second: 1
      data:
        first:
          name: _yOffset
        second: 0
      data:
        first:
          name: _xOffset
        second: 0
    m_Colors:
      data:
        first:
          name: _Color
        second: {r: 1, g: 1, b: 1, a: 1}
